…
                      var = c("PRCP", "TMIN", "TMAX"), 
                      date_min = "2017-01-01",
                      date_max = "2017-12-31") %>%
  mutate(
    name = recode(id, USW00094728 = "CentralPark_NY", 
                      USC00519397 = "Waikiki_HA",
                      USS0023B17S = "Waterhole_WA"),
    tmin = tmin / 10,
    tmax = tmax / 10,
    month = lubridate::floor_date(date, unit = "month")) %>%
  select(name, id, everything())
weather_df
```

    ## # A tibble: 1,095 x 7
    ##    name           id          date        prcp  tmax  tmin month     
    ##    <chr>          <chr>       <date>     <dbl> <dbl> <dbl> <date>    
    ##  1 CentralPark_NY USW00094728 2017-01-01     0   8.9   4.4 2017-01-01
    ##  2 CentralPark_NY USW00094728 2017-01-02    53   5     2.8 2017-01-01
    ##  3 CentralPark_NY USW00094728 2017-01-03   147   6.1   3.9 2017-01-01
    ##  4 CentralPark_NY USW00094728 2017-01-04     0  11.1   1.1 2017-01-01
    ##  5 CentralPark_NY USW00094728 2017-01-05     0   1.1  -2.7 2017-01-01
    ##  6 CentralPark_NY USW00094728 2017-01-06    13   0.6  -3.8 2017-01-01
    ##  7 CentralPark_NY USW00094728 2017-01-07    81  -3.2  -6.6 2017-01-01
    ##  8 CentralPark_NY USW00094728 2017-01-08     0  -3.8  -8.8 2017-01-01
    ##  9 CentralPark_NY USW00094728 2017-01-09     0  -4.9  -9.9 2017-01-01
    ## 10 CentralPark_NY USW00094728 2017-01-10     0   7.8  -6   2017-01-01
    ## # ... with 1,085 more rows

Start grouping
--------------

``` r
weather_df %>% 
  group_by(name, month)
```

    ## # A tibble: 1,095 x 7
    ## # Groups:   name, month [36]
    ##    name           id          date        prcp  tmax  tmin month     
    ##    <chr>          <chr>       <date>     <dbl> <dbl> <dbl> <date>    
    ##  1 CentralPark_NY USW00094728 2017-01-01     0   8.9   4.4 2017-01-01
    ##  2 CentralPark_NY USW00094728 2017-01-02    53   5     2.8 2017-01-01
    ##  3 CentralPark_NY USW00094728 2017-01-03   147   6.1   3.9 2017-01-01
    ##  4 CentralPark_NY USW00094728 2017-01-04     0  11.1   1.1 2017-01-01
    ##  5 CentralPark_NY USW00094728 2017-01-05     0   1.1  -2.7 2017-01-01
    ##  6 CentralPark_NY USW00094728 2017-01-06    13   0.6  -3.8 2017-01-01
    ##  7 CentralPark_NY USW00094728 2017-01-07    81  -3.2  -6.6 2017-01-01
    ##  8 CentralPark_NY USW00094728 2017-01-08     0  -3.8  -8.8 2017-01-01
    ##  9 CentralPark_NY USW00094728 2017-01-09     0  -4.9  -9.9 2017-01-01
    ## 10 CentralPark_NY USW00094728 2017-01-10     0   7.8  -6   2017-01-01
    ## # ... with 1,085 more rows

Count first

``` r
weather_df %>% 
  group_by(name, month) %>% 
  summarize(number = n())
```

    ## # A tibble: 36 x 3
    ## # Groups:   name [?]
    ##    name           month      number
    ##    <chr>          <date>      <int>
    ##  1 CentralPark_NY 2017-01-01     31
    ##  2 CentralPark_NY 2017-02-01     28
    ##  3 CentralPark_NY 2017-03-01     31
    ##  4 CentralPark_NY 2017-04-01     30
    ##  5 CentralPark_NY 2017-05-01     31
    ##  6 CentralPark_NY 2017-06-01     30
    ##  7 CentralPark_NY 2017-07-01     31
    ##  8 CentralPark_NY 2017-08-01     31
    ##  9 CentralPark_NY 2017-09-01     30
    ## 10 CentralPark_NY 2017-10-01     31
    ## # ... with 26 more rows
…
``` r
weather_df %>% 
  count(name, month)
```

    ## # A tibble: 36 x 3
    ##    name           month          n
    ##    <chr>          <date>     <int>
    ##  1 CentralPark_NY 2017-01-01    31
    ##  2 CentralPark_NY 2017-02-01    28
    ##  3 CentralPark_NY 2017-03-01    31
    ##  4 CentralPark_NY 2017-04-01    30
    ##  5 CentralPark_NY 2017-05-01    31
    ##  6 CentralPark_NY 2017-06-01    30
    ##  7 CentralPark_NY 2017-07-01    31
    ##  8 CentralPark_NY 2017-08-01    31
    ##  9 CentralPark_NY 2017-09-01    30
    ## 10 CentralPark_NY 2017-10-01    31
    ## # ... with 26 more rows

Grouped summaries
-----------------

``` r
weather_df %>% 
  group_by(name, month) %>% 
  summarize(number = n(),
            mean_tmax = mean(tmax, na.rm = TRUE),
            median_prcp = median(prcp, na.rm = TRUE),
            sd_tmin = sd(tmin, na.rm = TRUE))
```

    ## # A tibble: 36 x 6
    ## # Groups:   name [?]
    ##    name           month      number mean_tmax median_prcp sd_tmin
    ##    <chr>          <date>      <int>     <dbl>       <dbl>   <dbl>
    ##  1 CentralPark_NY 2017-01-01     31      5.98           0    4.47
    ##  2 CentralPark_NY 2017-02-01     28      9.28           0    5.05
    ##  3 CentralPark_NY 2017-03-01     31      8.22           0    5.78
    ##  4 CentralPark_NY 2017-04-01     30     18.3            0    3.82
    ##  5 CentralPark_NY 2017-05-01     31     20.1            0    3.75
    ##  6 CentralPark_NY 2017-06-01     30     26.3            0    4.23
    ##  7 CentralPark_NY 2017-07-01     31     28.7            0    2.32
    ##  8 CentralPark_NY 2017-08-01     31     27.2            0    2.06
    ##  9 CentralPark_NY 2017-09-01     30     25.4            0    3.42
    ## 10 CentralPark_NY 2017-10-01     31     21.8            0    4.42
    ## # ... with 26 more rows
…
